{
    "version": "https://jsonfeed.org/version/1",
    "title": "Garrett Dowd",
    "description": "",
    "home_page_url": "https://dev2.garrettdowd.com",
    "feed_url": "https://dev2.garrettdowd.com/feed.json",
    "user_comment": "",
    "author": {
        "name": "Garrett Dowd"
    },
    "items": [
    ]
}
